My Data Analysis Portfolio - Flu Analysis
…
#setup tree tuning grid
tree_grid <- grid_regular(cost_complexity(),
                          tree_depth(),
                          levels = 5)

#fit to folds data
tree_fit <- tune_grid(tree_workflow, resamples = folds, grid = tree_grid)

#null model performance
tree_performance <- collect_metrics(tree_fit)
tibble(tree_performance)

# A tibble: 50 x 8
   cost_complexity tree_depth .metric .estimator     mean     n  std_err .config
             <dbl>      <int> <chr>   <chr>         <dbl> <int>    <dbl> <chr>  
 1    0.0000000001          1 rmse    standard     1.19      25  0.0181  Prepro~
 2    0.0000000001          1 rsq     standard     0.0361    25  0.00422 Prepro~
 3    0.0000000178          1 rmse    standard     1.19      25  0.0181  Prepro~
 4    0.0000000178          1 rsq     standard     0.0361    25  0.00422 Prepro~
 5    0.00000316            1 rmse    standard     1.19      25  0.0181  Prepro~
 6    0.00000316            1 rsq     standard     0.0361    25  0.00422 Prepro~
 7    0.000562              1 rmse    standard     1.19      25  0.0181  Prepro~
 8    0.000562              1 rsq     standard     0.0361    25  0.00422 Prepro~
 9    0.1                   1 rmse    standard     1.21      25  0.0177  Prepro~
10    0.1                   1 rsq     standard   NaN          0 NA       Prepro~
# i 40 more rows
…
#model tuning and training
lasso_train <- lasso_workflow %>%
  tune_grid(
    resamples=folds,
    grid=lasso_grid,
    control=control_grid(save_pred = TRUE),
    metrics=metric_set(rmse))

lasso_train %>%
  collect_metrics()

# A tibble: 30 x 7
    penalty .metric .estimator  mean     n std_err .config              
      <dbl> <chr>   <chr>      <dbl> <int>   <dbl> <chr>                
 1 0.0001   rmse    standard    1.18    25  0.0167 Preprocessor1_Model01
 2 0.000127 rmse    standard    1.18    25  0.0167 Preprocessor1_Model02
 3 0.000161 rmse    standard    1.18    25  0.0167 Preprocessor1_Model03
 4 0.000204 rmse    standard    1.18    25  0.0167 Preprocessor1_Model04
 5 0.000259 rmse    standard    1.18    25  0.0167 Preprocessor1_Model05
 6 0.000329 rmse    standard    1.18    25  0.0167 Preprocessor1_Model06
 7 0.000418 rmse    standard    1.18    25  0.0167 Preprocessor1_Model07
 8 0.000530 rmse    standard    1.18    25  0.0167 Preprocessor1_Model08
 9 0.000672 rmse    standard    1.18    25  0.0167 Preprocessor1_Model09
10 0.000853 rmse    standard    1.18    25  0.0167 Preprocessor1_Model10
# i 20 more rows
…
rf_train %>% collect_metrics()

# A tibble: 25 x 8
    mtry min_n .metric .estimator  mean     n std_err .config              
   <int> <int> <chr>   <chr>      <dbl> <int>   <dbl> <chr>                
 1    30    20 rmse    standard    1.19    25  0.0168 Preprocessor1_Model01
 2    12    32 rmse    standard    1.17    25  0.0166 Preprocessor1_Model02
 3    26    11 rmse    standard    1.21    25  0.0165 Preprocessor1_Model03
 4    28     6 rmse    standard    1.21    25  0.0165 Preprocessor1_Model04
 5     3     7 rmse    standard    1.17    25  0.0166 Preprocessor1_Model05
 6    16    37 rmse    standard    1.17    25  0.0166 Preprocessor1_Model06
 7     4    25 rmse    standard    1.16    25  0.0167 Preprocessor1_Model07
 8    11    27 rmse    standard    1.17    25  0.0168 Preprocessor1_Model08
 9    15    35 rmse    standard    1.17    25  0.0167 Preprocessor1_Model09
10    23    38 rmse    standard    1.18    25  0.0168 Preprocessor1_Model10
# i 15 more rows
…
