My Data Analysis Portfolio - Visualization Exercise
…
I will have to reorganize the variables to allow for easier analysis and plotting. Currently, winning percentages are listed for each team at each minute of the game, with the corresponding column labeled after that minute (0, 1, 2,…48). I will need to tidy this to create new columns for minute and win percentage. Once completed, I should have three variables - team, minute, and win percentage.

nba_data <- nba_data %>%
  tidyr::pivot_longer(!team,
    names_to = "minute",
    names_prefix = "min",
    values_to = "win_percentage",
    values_drop_na = TRUE ) %>%
  dplyr::mutate(minute, as.numeric(minute))

nba_data

# A tibble: 1,470 × 4
   team  minute win_percentage `as.numeric(minute)`
   <chr> <chr>           <dbl>                <dbl>
 1 Hawks 0               0.507                    0
 2 Hawks 1               0.510                    1
 3 Hawks 2               0.515                    2
 4 Hawks 3               0.516                    3
 5 Hawks 4               0.519                    4
 6 Hawks 5               0.528                    5
 7 Hawks 6               0.533                    6
 8 Hawks 7               0.529                    7
 9 Hawks 8               0.536                    8
10 Hawks 9               0.540                    9
# … with 1,460 more rows
…
